{
	"info": {
		"_postman_id": "d7d6abd3-b6e3-4ab7-b90c-ad7e62fadce2",
		"name": "s31 discussion",
		"schema": "https://schema.getpostman.com/json/collection/v2.1.0/collection.json"
	},
	"item": [
		{
			"name": "GET all the tasks",
			"request": {
				"method": "GET",
				"header": [],
				"url": {
					"raw": "http://localhost:3001/tasks/",
					"protocol": "http",
					"host": [
						"localhost"
					],
					"port": "3001",
					"path": [
						"tasks",
						""
					]
				}
			},
			"response": []
		},
		{
			"name": "CREATE new task",
			"request": {
				"method": "POST",
				"header": [],
				"body": {
					"mode": "raw",
					"raw": "{\r\n    \"name\": \"Session 31 Activity\"\r\n}",
					"options": {
						"raw": {
							"language": "json"
						}
					}
				},
				"url": {
					"raw": "http://localhost:3001/tasks/",
					"protocol": "http",
					"host": [
						"localhost"
					],
					"port": "3001",
					"path": [
						"tasks",
						""
					]
				}
			},
			"response": []
		},
		{
			"name": "DELETE task by id",
			"request": {
				"method": "DELETE",
				"header": [],
				"url": {
					"raw": "http://localhost:3001/tasks/621e0b7351303497d68ef22",
					"protocol": "http",
					"host": [
						"localhost"
					],
					"port": "3001",
					"path": [
						"tasks",
						"621e0b7351303497d68ef22"
					]
				}
			},
			"response": []
		},
		{
			"name": "PUT update a task",
			"request": {
				"method": "PUT",
				"header": [],
				"body": {
					"mode": "raw",
					"raw": "{\r\n    \"name\": \"Eat\"\r\n}",
					"options": {
						"raw": {
							"language": "json"
						}
					}
				},
				"url": {
					"raw": "http://localhost:3001/tasks/621e0b6751303497d68ef620",
					"protocol": "http",
					"host": [
						"localhost"
					],
					"port": "3001",
					"path": [
						"tasks",
						"621e0b6751303497d68ef620"
					]
				}
			},
			"response": []
		},
		{
			"name": "GET specific task",
			"request": {
				"method": "GET",
				"header": [],
				"url": {
					"raw": "http://localhost:3001/tasks/621cab830ae5244ca7ff1828",
					"protocol": "http",
					"host": [
						"localhost"
					],
					"port": "3001",
					"path": [
						"tasks",
						"621cab830ae5244ca7ff1828"
					]
				}
			},
			"response": []
		},
		{
			"name": "PUT update status",
			"request": {
				"method": "PUT",
				"header": [],
				"body": {
					"mode": "raw",
					"raw": ""
				},
				"url": {
					"raw": "http://localhost:3001/tasks/621cab830ae5244ca7ff1828/complete",
					"protocol": "http",
					"host": [
						"localhost"
					],
					"port": "3001",
					"path": [
						"tasks",
						"621cab830ae5244ca7ff1828",
						"complete"
					]
				}
			},
			"response": []
		}
	]
}